EESchema Schematic File Version 4
EELAYER 30 0
EELAYER END
$Descr A4 11693 8268
encoding utf-8
Sheet 1 1
Title "Vending Machine Pi Hat"
Date "2020-01-11"
Rev "3.1"
Comp "AMIV an der ETH / Bastli"
Comment1 "Created by Sandro Lutz"
Comment2 ""
Comment3 ""
Comment4 ""
$EndDescr
$Comp
L power:GND #PWR04
U 1 1 5D5BAE28
P 2300 2150
F 0 "#PWR04" H 2300 1900 50  0001 C CNN
F 1 "GND" H 2305 1977 50  0000 C CNN
F 2 "" H 2300 2150 50  0001 C CNN
F 3 "" H 2300 2150 50  0001 C CNN
	1    2300 2150
	1    0    0    -1  
$EndComp
Wire Wire Line
	2350 1950 2300 1950
Wire Wire Line
	2300 1950 2300 2050
$Comp
L device:C C2
U 1 1 5D5BB689
P 2050 1800
F 0 "C2" H 2165 1846 50  0000 L CNN
F 1 "6.8uF/50V" V 1900 1950 50  0000 R CNN
F 2 "Capacitors_SMD:C_1206" H 2088 1650 50  0001 C CNN
F 3 "~" H 2050 1800 50  0001 C CNN
	1    2050 1800
	1    0    0    -1  
$EndComp
$Comp
L device:D_Schottky D1
U 1 1 5D5BE10A
P 3800 1800
F 0 "D1" V 3754 1879 50  0000 L CNN
F 1 "SBRT3U60SAF" V 3900 1850 50  0000 L CNN
F 2 "digikey-footprints:DO-214AC" H 3800 1800 50  0001 C CNN
F 3 "~" H 3800 1800 50  0001 C CNN
	1    3800 1800
	0    1    1    0   
$EndComp
$Comp
L device:L L1
U 1 1 5D5BEAAC
P 4000 1550
F 0 "L1" V 4190 1550 50  0000 C CNN
F 1 "10uH/3.9A" V 4099 1550 50  0000 C CNN
F 2 "vending-machine-pi-hat:DD1217AS-H-100M=P3" H 4000 1550 50  0001 C CNN
F 3 "~" H 4000 1550 50  0001 C CNN
	1    4000 1550
	0    -1   -1   0   
$EndComp
Wire Wire Line
	3850 1550 3800 1550
Wire Wire Line
	3800 1650 3800 1550
Wire Wire Line
	4150 1550 4400 1550
Wire Wire Line
	4400 1550 4400 1650
Connection ~ 4400 1550
Wire Wire Line
	5050 2050 5050 1550
$Comp
L power:+5V #PWR011
U 1 1 5D5BF6F8
P 5100 1550
F 0 "#PWR011" H 5100 1400 50  0001 C CNN
F 1 "+5V" V 5115 1678 50  0000 L CNN
F 2 "" H 5100 1550 50  0001 C CNN
F 3 "" H 5100 1550 50  0001 C CNN
	1    5100 1550
	0    1    1    0   
$EndComp
Wire Wire Line
	5100 1550 5050 1550
Connection ~ 5050 1550
$Comp
L power:GND #PWR05
U 1 1 5D5C024E
P 3800 2150
F 0 "#PWR05" H 3800 1900 50  0001 C CNN
F 1 "GND" H 3805 1977 50  0000 C CNN
F 2 "" H 3800 2150 50  0001 C CNN
F 3 "" H 3800 2150 50  0001 C CNN
	1    3800 2150
	1    0    0    -1  
$EndComp
$Comp
L power:GND #PWR06
U 1 1 5D5C0661
P 4400 2150
F 0 "#PWR06" H 4400 1900 50  0001 C CNN
F 1 "GND" H 4405 1977 50  0000 C CNN
F 2 "" H 4400 2150 50  0001 C CNN
F 3 "" H 4400 2150 50  0001 C CNN
	1    4400 2150
	1    0    0    -1  
$EndComp
Wire Wire Line
	4400 2150 4400 1950
Wire Wire Line
	3800 1950 3800 2150
$Comp
L power:GND #PWR03
U 1 1 5D5C2DE4
P 2050 2150
F 0 "#PWR03" H 2050 1900 50  0001 C CNN
F 1 "GND" H 2055 1977 50  0000 C CNN
F 2 "" H 2050 2150 50  0001 C CNN
F 3 "" H 2050 2150 50  0001 C CNN
	1    2050 2150
	1    0    0    -1  
$EndComp
Wire Wire Line
	2050 1950 2050 2150
Wire Wire Line
	2050 1650 2050 1550
Wire Wire Line
	2050 1550 2350 1550
Connection ~ 2050 1550
Text Label 1050 1550 0    50   ~ 0
VIN
$Comp
L vending-machine-pi-hat-rescue:Conn_02x03_Top_Bottom-conn J1
U 1 1 5D5D114E
P 1850 5200
F 0 "J1" H 1900 5517 50  0000 C CNN
F 1 "Molex 0039301060" H 1900 5426 50  0000 C CNN
F 2 "Connectors_Molex:Molex_MiniFit-JR-5569-06A2_2x03x4.20mm_Angled" H 1850 5200 50  0001 C CNN
F 3 "~" H 1850 5200 50  0001 C CNN
	1    1850 5200
	1    0    0    -1  
$EndComp
Text Label 1000 5100 0    50   ~ 0
VIN
Wire Wire Line
	1650 5100 1600 5100
$Comp
L power:GND #PWR02
U 1 1 5D5D42A3
P 1550 5350
F 0 "#PWR02" H 1550 5100 50  0001 C CNN
F 1 "GND" H 1555 5177 50  0000 C CNN
F 2 "" H 1550 5350 50  0001 C CNN
F 3 "" H 1550 5350 50  0001 C CNN
	1    1550 5350
	1    0    0    -1  
$EndComp
Text Label 3050 5100 2    50   ~ 0
MDB_MASTER_RECEIVE
Text Label 3050 5200 2    50   ~ 0
MDB_MASTER_TRANSMIT
Wire Wire Line
	1650 5200 1550 5200
Wire Wire Line
	1550 5200 1550 5350
Text Label 3050 5300 2    50   ~ 0
MDB_COMMON
NoConn ~ 1650 5300
$Comp
L symbols:TPC817 U2
U 1 1 5D5E6EB6
P 3950 4950
F 0 "U2" H 3950 5275 50  0000 C CNN
F 1 "TPC817S1C RAG" H 3950 5184 50  0000 C CNN
F 2 "vending-machine-pi-hat:SOP-4_6.5x4.6mm_Pitch2.54mm" H 3950 5350 50  0001 C CNN
F 3 "" H 3950 5350 50  0001 C CNN
	1    3950 4950
	-1   0    0    -1  
$EndComp
$Comp
L symbols:TPC817 U3
U 1 1 5D5E78AC
P 3950 5800
F 0 "U3" H 3950 6125 50  0000 C CNN
F 1 "TPC817S1C RAG" H 3950 6034 50  0000 C CNN
F 2 "vending-machine-pi-hat:SOP-4_6.5x4.6mm_Pitch2.54mm" H 3950 6200 50  0001 C CNN
F 3 "" H 3950 6200 50  0001 C CNN
	1    3950 5800
	1    0    0    -1  
$EndComp
Wire Wire Line
	4250 5900 4350 5900
Wire Wire Line
	4350 5900 4350 5950
$Comp
L power:GND #PWR08
U 1 1 5D5ECD1B
P 4350 5950
F 0 "#PWR08" H 4350 5700 50  0001 C CNN
F 1 "GND" H 4355 5777 50  0000 C CNN
F 2 "" H 4350 5950 50  0001 C CNN
F 3 "" H 4350 5950 50  0001 C CNN
	1    4350 5950
	1    0    0    -1  
$EndComp
$Comp
L device:R R1
U 1 1 5D5F2AB9
P 3450 5700
F 0 "R1" V 3243 5700 50  0000 C CNN
F 1 "249R" V 3334 5700 50  0000 C CNN
F 2 "Resistors_SMD:R_0603_1608Metric" V 3380 5700 50  0001 C CNN
F 3 "~" H 3450 5700 50  0001 C CNN
	1    3450 5700
	0    1    1    0   
$EndComp
Wire Wire Line
	3650 5700 3600 5700
Wire Wire Line
	3650 5900 3250 5900
Wire Wire Line
	3250 5900 3250 5300
Wire Wire Line
	2150 5300 3250 5300
Wire Wire Line
	3100 5200 3100 5700
Wire Wire Line
	3100 5700 3300 5700
Wire Wire Line
	2150 5200 3100 5200
Wire Wire Line
	3100 5100 3100 4850
Wire Wire Line
	3100 4850 3650 4850
Wire Wire Line
	2150 5100 3100 5100
Wire Wire Line
	3650 5050 3250 5050
Wire Wire Line
	3250 5050 3250 5300
Connection ~ 3250 5300
Wire Wire Line
	4350 4850 4350 4800
Wire Wire Line
	4350 4850 4250 4850
$Comp
L device:R R3
U 1 1 5D5FDD8A
P 4650 5050
F 0 "R3" V 4550 5050 50  0000 C CNN
F 1 "249R" V 4750 5050 50  0000 C CNN
F 2 "Resistors_SMD:R_0603_1608Metric" V 4580 5050 50  0001 C CNN
F 3 "~" H 4650 5050 50  0001 C CNN
	1    4650 5050
	0    1    1    0   
$EndComp
Wire Wire Line
	4500 5050 4250 5050
Wire Wire Line
	4250 5700 4400 5700
Wire Wire Line
	4800 5050 5350 5050
Text Label 5350 5050 2    50   ~ 0
MDB_SLAVE_TX
Text Label 5350 5700 2    50   ~ 0
MDB_SLAVE_RX
$Comp
L device:R R2
U 1 1 5D6043A6
P 4400 5500
F 0 "R2" H 4300 5500 50  0000 C CNN
F 1 "10k" V 4500 5500 50  0000 C CNN
F 2 "Resistors_SMD:R_0603_1608Metric" V 4330 5500 50  0001 C CNN
F 3 "~" H 4400 5500 50  0001 C CNN
	1    4400 5500
	-1   0    0    1   
$EndComp
Wire Wire Line
	4400 5300 4400 5350
Wire Wire Line
	4400 5650 4400 5700
Connection ~ 4400 5700
Wire Wire Line
	4400 5700 5350 5700
Wire Wire Line
	7000 4850 6350 4850
Text Label 6350 4850 0    50   ~ 0
RS232_TX
Wire Wire Line
	7000 4750 6350 4750
Text Label 6350 4750 0    50   ~ 0
RS232_RX
$Comp
L power:+5V #PWR012
U 1 1 5D625398
P 7600 3950
F 0 "#PWR012" H 7600 3800 50  0001 C CNN
F 1 "+5V" H 7615 4123 50  0000 C CNN
F 2 "" H 7600 3950 50  0001 C CNN
F 3 "" H 7600 3950 50  0001 C CNN
	1    7600 3950
	1    0    0    -1  
$EndComp
Wire Wire Line
	7600 3950 7600 4000
Wire Wire Line
	7600 4000 7550 4000
Wire Wire Line
	7550 4000 7550 4050
Wire Wire Line
	7600 4000 7650 4000
Wire Wire Line
	7650 4000 7650 4050
Connection ~ 7600 4000
$Comp
L symbols:ADM3251EARWZ U4
U 1 1 5D630B44
P 7650 4750
F 0 "U4" H 7200 5350 60  0000 C CNN
F 1 "ADM3251EARWZ" H 7550 5000 60  0000 C CNN
F 2 "digikey-footprints:SOIC-20_W7.5mm" H 7950 5600 60  0001 L CNN
F 3 "https://www.analog.com/media/en/technical-documentation/data-sheets/ADM3251E.pdf" H 7950 5700 60  0001 L CNN
F 4 "ADM3251EARWZ-ND" H 7950 5800 60  0001 L CNN "Digi-Key_PN"
F 5 "ADM3251EARWZ" H 7950 5900 60  0001 L CNN "MPN"
F 6 "Isolators" H 7950 6000 60  0001 L CNN "Category"
F 7 "Digital Isolators" H 7950 6100 60  0001 L CNN "Family"
F 8 "https://www.analog.com/media/en/technical-documentation/data-sheets/ADM3251E.pdf" H 7950 6200 60  0001 L CNN "DK_Datasheet_Link"
F 9 "/product-detail/en/analog-devices-inc/ADM3251EARWZ/ADM3251EARWZ-ND/1944219" H 7950 6300 60  0001 L CNN "DK_Detail_Page"
F 10 "DGTL ISO 2.5KV 2CH RS232 20SOIC" H 7950 6400 60  0001 L CNN "Description"
F 11 "Analog Devices Inc." H 7950 6500 60  0001 L CNN "Manufacturer"
F 12 "Active" H 7950 6600 60  0001 L CNN "Status"
	1    7650 4750
	1    0    0    -1  
$EndComp
$Comp
L power:GNDS #PWR014
U 1 1 5D635CCF
P 7900 5650
F 0 "#PWR014" H 7900 5400 50  0001 C CNN
F 1 "GNDS" H 7905 5477 50  0000 C CNN
F 2 "" H 7900 5650 50  0001 C CNN
F 3 "" H 7900 5650 50  0001 C CNN
	1    7900 5650
	1    0    0    -1  
$EndComp
Wire Wire Line
	7900 5650 7900 5550
$Comp
L power:GND #PWR013
U 1 1 5D637579
P 7600 5650
F 0 "#PWR013" H 7600 5400 50  0001 C CNN
F 1 "GND" H 7605 5477 50  0000 C CNN
F 2 "" H 7600 5650 50  0001 C CNN
F 3 "" H 7600 5650 50  0001 C CNN
	1    7600 5650
	1    0    0    -1  
$EndComp
Wire Wire Line
	7600 5650 7600 5600
Wire Wire Line
	7600 5600 7500 5600
Wire Wire Line
	7400 5600 7400 5550
Wire Wire Line
	7500 5550 7500 5600
Connection ~ 7500 5600
Wire Wire Line
	7500 5600 7400 5600
Wire Wire Line
	7600 5600 7600 5550
Connection ~ 7600 5600
Wire Wire Line
	7600 5600 7700 5600
Wire Wire Line
	7700 5600 7700 5550
Wire Wire Line
	7700 5600 7800 5600
Wire Wire Line
	7800 5600 7800 5550
Connection ~ 7700 5600
Wire Wire Line
	8300 4850 9100 4850
$Comp
L device:C_Small C6
U 1 1 5D640FAD
P 8450 4150
F 0 "C6" H 8542 4196 50  0000 L CNN
F 1 "0.1uF" H 8542 4105 50  0000 L CNN
F 2 "Capacitors_SMD:C_0603" H 8450 4150 50  0001 C CNN
F 3 "~" H 8450 4150 50  0001 C CNN
	1    8450 4150
	1    0    0    -1  
$EndComp
$Comp
L device:C_Small C10
U 1 1 5D6417AA
P 8850 4150
F 0 "C10" H 8942 4196 50  0000 L CNN
F 1 "0.1uF" H 8942 4105 50  0000 L CNN
F 2 "Capacitors_SMD:C_0603" H 8850 4150 50  0001 C CNN
F 3 "~" H 8850 4150 50  0001 C CNN
	1    8850 4150
	1    0    0    -1  
$EndComp
Wire Wire Line
	8850 4050 8850 4000
Wire Wire Line
	8850 4000 8450 4000
Wire Wire Line
	8450 4000 8450 4050
Wire Wire Line
	8450 4000 7750 4000
Wire Wire Line
	7750 4000 7750 4050
Connection ~ 8450 4000
$Comp
L power:GNDS #PWR016
U 1 1 5D6488D6
P 8850 4300
F 0 "#PWR016" H 8850 4050 50  0001 C CNN
F 1 "GNDS" H 8855 4127 50  0000 C CNN
F 2 "" H 8850 4300 50  0001 C CNN
F 3 "" H 8850 4300 50  0001 C CNN
	1    8850 4300
	1    0    0    -1  
$EndComp
Wire Wire Line
	8850 4300 8850 4250
Wire Wire Line
	8450 4250 8450 4350
Wire Wire Line
	8450 4350 8300 4350
$Comp
L device:C_Small C7
U 1 1 5D64BD83
P 8450 4550
F 0 "C7" H 8542 4596 50  0000 L CNN
F 1 "0.1uF" H 8542 4505 50  0000 L CNN
F 2 "Capacitors_SMD:C_0603" H 8450 4550 50  0001 C CNN
F 3 "~" H 8450 4550 50  0001 C CNN
	1    8450 4550
	1    0    0    -1  
$EndComp
Wire Wire Line
	8450 4450 8450 4400
Wire Wire Line
	8450 4400 8350 4400
Wire Wire Line
	8350 4400 8350 4500
Wire Wire Line
	8350 4500 8300 4500
Wire Wire Line
	8300 4600 8350 4600
Wire Wire Line
	8350 4600 8350 4700
Wire Wire Line
	8350 4700 8450 4700
Wire Wire Line
	8450 4700 8450 4650
$Comp
L device:C_Small C8
U 1 1 5D654516
P 8450 5050
F 0 "C8" H 8542 5096 50  0000 L CNN
F 1 "0.1uF" H 8542 5005 50  0000 L CNN
F 2 "Capacitors_SMD:C_0603" H 8450 5050 50  0001 C CNN
F 3 "~" H 8450 5050 50  0001 C CNN
	1    8450 5050
	1    0    0    -1  
$EndComp
Wire Wire Line
	8450 4950 8450 4900
Wire Wire Line
	8450 4900 8350 4900
Wire Wire Line
	8350 4900 8350 5000
Wire Wire Line
	8350 5000 8300 5000
Wire Wire Line
	8300 5100 8350 5100
Wire Wire Line
	8350 5100 8350 5200
Wire Wire Line
	8350 5200 8450 5200
Wire Wire Line
	8450 5200 8450 5150
$Comp
L device:C_Small C9
U 1 1 5D658D1D
P 8450 5450
F 0 "C9" H 8542 5496 50  0000 L CNN
F 1 "0.1uF" H 8542 5405 50  0000 L CNN
F 2 "Capacitors_SMD:C_0603" H 8450 5450 50  0001 C CNN
F 3 "~" H 8450 5450 50  0001 C CNN
	1    8450 5450
	1    0    0    -1  
$EndComp
Wire Wire Line
	8450 5350 8450 5250
Wire Wire Line
	8450 5250 8300 5250
$Comp
L power:GNDS #PWR015
U 1 1 5D66873C
P 8450 5650
F 0 "#PWR015" H 8450 5400 50  0001 C CNN
F 1 "GNDS" H 8455 5477 50  0000 C CNN
F 2 "" H 8450 5650 50  0001 C CNN
F 3 "" H 8450 5650 50  0001 C CNN
	1    8450 5650
	1    0    0    -1  
$EndComp
Wire Wire Line
	8450 5650 8450 5550
NoConn ~ 7000 5100
Wire Wire Line
	9100 5050 9050 5050
Wire Wire Line
	9050 5050 9050 5400
$Comp
L power:GNDS #PWR017
U 1 1 5D680C01
P 9050 5400
F 0 "#PWR017" H 9050 5150 50  0001 C CNN
F 1 "GNDS" H 9055 5227 50  0000 C CNN
F 2 "" H 9050 5400 50  0001 C CNN
F 3 "" H 9050 5400 50  0001 C CNN
	1    9050 5400
	1    0    0    -1  
$EndComp
NoConn ~ 9700 4750
NoConn ~ 9700 4650
NoConn ~ 9100 4650
Wire Notes Line
	11000 6350 5850 6350
Wire Notes Line
	5850 6350 5850 3550
Wire Notes Line
	5850 3550 11000 3550
Wire Notes Line
	11000 3550 11000 6350
Wire Notes Line
	5700 6350 5700 3250
Wire Notes Line
	5700 3250 600  3250
Wire Notes Line
	600  3250 600  6350
Wire Notes Line
	600  6350 5700 6350
Wire Notes Line
	600  3150 5700 3150
Wire Notes Line
	5700 3150 5700 650 
Wire Notes Line
	5700 650  600  650 
Wire Notes Line
	600  650  600  3150
Text Notes 5000 6250 0    50   ~ 10
MDB Interface
Text Notes 5950 6250 0    50   ~ 10
RS-232 Interface
Text Notes 4850 3050 0    50   ~ 10
5V Power Supply
Text Notes 3900 3050 0    50   ~ 0
4.5-42V IN, 3A OUT
$Comp
L vending-machine-pi-hat-rescue:Conn_02x20_Odd_Even-conn J3
U 1 1 5D6EC51C
P 9450 1950
F 0 "J3" H 9500 3067 50  0000 C CNN
F 1 "RPi GPIO Header" H 9500 2976 50  0000 C CNN
F 2 "Pin_Headers:Pin_Header_Straight_2x20_Pitch2.54mm" H 9450 1950 50  0001 C CNN
F 3 "~" H 9450 1950 50  0001 C CNN
	1    9450 1950
	1    0    0    -1  
$EndComp
Wire Wire Line
	9750 1050 9950 1050
Wire Wire Line
	9950 1050 9950 1000
Wire Wire Line
	9750 1150 9950 1150
Wire Wire Line
	9950 1150 9950 1050
Connection ~ 9950 1050
$Comp
L power:+5V #PWR020
U 1 1 5D6F3E1A
P 9950 1000
F 0 "#PWR020" H 9950 850 50  0001 C CNN
F 1 "+5V" H 9965 1173 50  0000 C CNN
F 2 "" H 9950 1000 50  0001 C CNN
F 3 "" H 9950 1000 50  0001 C CNN
	1    9950 1000
	1    0    0    -1  
$EndComp
$Comp
L power:GND #PWR021
U 1 1 5D6F4844
P 9950 3000
F 0 "#PWR021" H 9950 2750 50  0001 C CNN
F 1 "GND" H 9955 2827 50  0000 C CNN
F 2 "" H 9950 3000 50  0001 C CNN
F 3 "" H 9950 3000 50  0001 C CNN
	1    9950 3000
	1    0    0    -1  
$EndComp
Wire Wire Line
	9950 3000 9950 2650
Wire Wire Line
	9950 1250 9750 1250
Wire Wire Line
	9750 1650 9950 1650
Connection ~ 9950 1650
Wire Wire Line
	9950 1650 9950 1250
Wire Wire Line
	9750 1950 9950 1950
Connection ~ 9950 1950
Wire Wire Line
	9950 1950 9950 1650
Wire Wire Line
	9750 2450 9950 2450
Connection ~ 9950 2450
Wire Wire Line
	9950 2450 9950 1950
Wire Wire Line
	9750 2650 9950 2650
Connection ~ 9950 2650
Wire Wire Line
	9950 2650 9950 2450
$Comp
L power:GND #PWR018
U 1 1 5D7045D0
P 9150 3000
F 0 "#PWR018" H 9150 2750 50  0001 C CNN
F 1 "GND" H 9155 2827 50  0000 C CNN
F 2 "" H 9150 3000 50  0001 C CNN
F 3 "" H 9150 3000 50  0001 C CNN
	1    9150 3000
	1    0    0    -1  
$EndComp
Wire Wire Line
	9250 2950 9150 2950
Wire Wire Line
	9150 2950 9150 3000
Wire Wire Line
	9250 2250 9150 2250
Wire Wire Line
	9150 2250 9150 2950
Connection ~ 9150 2950
Wire Wire Line
	9250 1450 9150 1450
Wire Wire Line
	9150 1450 9150 2250
Connection ~ 9150 2250
Wire Notes Line
	11000 3400 11000 650 
Wire Notes Line
	11000 650  8000 650 
Wire Notes Line
	8000 650  8000 3400
Wire Notes Line
	8000 3400 11000 3400
Text Notes 8100 3300 0    50   ~ 10
GPIO Header
NoConn ~ 9250 1850
Text Label 8500 2650 0    50   ~ 0
RS232_RX_3V3
Text Label 10550 2550 2    50   ~ 0
RS232_TX
Text Label 10550 1450 2    50   ~ 0
MDB_SLAVE_RX
NoConn ~ 9250 1150
NoConn ~ 9250 1250
NoConn ~ 9250 2350
NoConn ~ 9750 2350
Wire Wire Line
	2350 2050 2300 2050
Connection ~ 2300 2050
Wire Wire Line
	2300 2050 2300 2150
$Comp
L power:GNDS #PWR019
U 1 1 5D7E62C9
P 9750 5400
F 0 "#PWR019" H 9750 5150 50  0001 C CNN
F 1 "GNDS" H 9755 5227 50  0000 C CNN
F 2 "" H 9750 5400 50  0001 C CNN
F 3 "" H 9750 5400 50  0001 C CNN
	1    9750 5400
	1    0    0    -1  
$EndComp
Wire Wire Line
	9700 5050 9750 5050
Wire Wire Line
	9750 5050 9750 5400
Wire Wire Line
	9700 4950 9800 4950
Text Label 10650 4950 2    50   ~ 0
VIN
NoConn ~ 2350 1750
$Comp
L device:C_Small C3
U 1 1 5D80239A
P 3400 1750
F 0 "C3" V 3450 1850 50  0000 C CNN
F 1 "10nF" V 3350 1600 50  0000 C CNN
F 2 "Capacitors_SMD:C_0603" H 3400 1750 50  0001 C CNN
F 3 "~" H 3400 1750 50  0001 C CNN
	1    3400 1750
	0    -1   -1   0   
$EndComp
Wire Wire Line
	3300 1750 3250 1750
Wire Wire Line
	3500 1750 3550 1750
Wire Wire Line
	3550 1750 3550 1550
Wire Wire Line
	3550 1550 3250 1550
Wire Wire Line
	3800 1550 3550 1550
Connection ~ 3800 1550
Connection ~ 3550 1550
Wire Wire Line
	4400 1550 4800 1550
Wire Wire Line
	5050 2050 3250 2050
$Comp
L symbols:LM22676 U1
U 1 1 5D821B84
P 2800 1800
F 0 "U1" H 2800 2315 50  0000 C CNN
F 1 "LM22676MRX-5.0" H 2800 2224 50  0000 C CNN
F 2 "Housings_SOIC:HTSOP-8-1EP_3.9x4.9mm_Pitch1.27mm_ThermalVias_LargeCopper" H 2800 1800 50  0001 C CNN
F 3 "" H 2800 1800 50  0001 C CNN
	1    2800 1800
	1    0    0    -1  
$EndComp
$Comp
L power:GND #PWR01
U 1 1 5D628FD8
P 1600 2150
F 0 "#PWR01" H 1600 1900 50  0001 C CNN
F 1 "GND" H 1605 1977 50  0000 C CNN
F 2 "" H 1600 2150 50  0001 C CNN
F 3 "" H 1600 2150 50  0001 C CNN
	1    1600 2150
	1    0    0    -1  
$EndComp
Wire Wire Line
	1600 1650 1600 1550
Connection ~ 1600 1550
Wire Wire Line
	1600 1550 2050 1550
Wire Wire Line
	1600 1950 1600 2150
$Comp
L device:CP C5
U 1 1 5D632BD6
P 4800 1800
F 0 "C5" H 4918 1846 50  0000 L CNN
F 1 "120uF/50V" V 4650 2000 50  0000 R CNN
F 2 "Capacitors_ThroughHole:CP_Radial_D10.0mm_P5.00mm" H 4838 1650 50  0001 C CNN
F 3 "~" H 4800 1800 50  0001 C CNN
	1    4800 1800
	1    0    0    -1  
$EndComp
$Comp
L device:C C4
U 1 1 5D633488
P 4400 1800
F 0 "C4" H 4200 1850 50  0000 L CNN
F 1 "6.8uF/50V" V 4550 2000 50  0000 R CNN
F 2 "Capacitors_SMD:C_1206" H 4438 1650 50  0001 C CNN
F 3 "~" H 4400 1800 50  0001 C CNN
	1    4400 1800
	1    0    0    -1  
$EndComp
Wire Wire Line
	4800 1650 4800 1550
Connection ~ 4800 1550
Wire Wire Line
	4800 1550 5050 1550
$Comp
L power:GND #PWR010
U 1 1 5D654417
P 4800 2150
F 0 "#PWR010" H 4800 1900 50  0001 C CNN
F 1 "GND" H 4805 1977 50  0000 C CNN
F 2 "" H 4800 2150 50  0001 C CNN
F 3 "" H 4800 2150 50  0001 C CNN
	1    4800 2150
	1    0    0    -1  
$EndComp
Wire Wire Line
	4800 2150 4800 1950
$Comp
L device:CP C1
U 1 1 5D66C6F2
P 1600 1800
F 0 "C1" H 1718 1846 50  0000 L CNN
F 1 "22uF/50V" V 1450 1950 50  0000 R CNN
F 2 "Oddities:NetTie-I_Connected_SMD" H 1638 1650 50  0001 C CNN
F 3 "~" H 1600 1800 50  0001 C CNN
	1    1600 1800
	1    0    0    -1  
$EndComp
Wire Wire Line
	1500 1550 1600 1550
$Comp
L device:Polyfuse F1
U 1 1 5D69D634
P 1350 1550
F 0 "F1" V 1125 1550 50  0000 C CNN
F 1 "3A/PTC Fuse" V 1216 1550 50  0000 C CNN
F 2 "vending-machine-pi-hat:Fuse_2920_concave" H 1400 1350 50  0001 L CNN
F 3 "~" H 1350 1550 50  0001 C CNN
	1    1350 1550
	0    1    1    0   
$EndComp
Wire Wire Line
	1200 1550 1050 1550
$Comp
L power:GNDS #PWR0101
U 1 1 5D767A6F
P 10600 6050
F 0 "#PWR0101" H 10600 5800 50  0001 C CNN
F 1 "GNDS" H 10605 5877 50  0000 C CNN
F 2 "" H 10600 6050 50  0001 C CNN
F 3 "" H 10600 6050 50  0001 C CNN
	1    10600 6050
	1    0    0    -1  
$EndComp
$Comp
L power:GND #PWR0102
U 1 1 5D767E30
P 10200 6050
F 0 "#PWR0102" H 10200 5800 50  0001 C CNN
F 1 "GND" H 10205 5877 50  0000 C CNN
F 2 "" H 10200 6050 50  0001 C CNN
F 3 "" H 10200 6050 50  0001 C CNN
	1    10200 6050
	1    0    0    -1  
$EndComp
$Comp
L device:Net-Tie_2 NT1
U 1 1 5D768AC2
P 10400 5950
F 0 "NT1" H 10400 6131 50  0000 C CNN
F 1 "Net-Tie_2" H 10400 6040 50  0000 C CNN
F 2 "Oddities:NetTie-I_Connected_SMD" H 10400 5950 50  0001 C CNN
F 3 "~" H 10400 5950 50  0001 C CNN
	1    10400 5950
	1    0    0    -1  
$EndComp
Wire Wire Line
	10500 5950 10600 5950
Wire Wire Line
	10600 5950 10600 6050
Wire Wire Line
	10300 5950 10200 5950
Wire Wire Line
	10200 5950 10200 6050
$Comp
L power:GNDS #PWR0103
U 1 1 5D796CF6
P 10600 5500
F 0 "#PWR0103" H 10600 5250 50  0001 C CNN
F 1 "GNDS" H 10605 5327 50  0000 C CNN
F 2 "" H 10600 5500 50  0001 C CNN
F 3 "" H 10600 5500 50  0001 C CNN
	1    10600 5500
	1    0    0    -1  
$EndComp
$Comp
L power:GND #PWR0104
U 1 1 5D796CFC
P 10200 5500
F 0 "#PWR0104" H 10200 5250 50  0001 C CNN
F 1 "GND" H 10205 5327 50  0000 C CNN
F 2 "" H 10200 5500 50  0001 C CNN
F 3 "" H 10200 5500 50  0001 C CNN
	1    10200 5500
	1    0    0    -1  
$EndComp
$Comp
L device:Net-Tie_2 NT2
U 1 1 5D796D02
P 10400 5400
F 0 "NT2" H 10400 5581 50  0000 C CNN
F 1 "Net-Tie_2" H 10400 5490 50  0000 C CNN
F 2 "Oddities:NetTie-I_Connected_SMD" H 10400 5400 50  0001 C CNN
F 3 "~" H 10400 5400 50  0001 C CNN
	1    10400 5400
	1    0    0    -1  
$EndComp
Wire Wire Line
	10500 5400 10600 5400
Wire Wire Line
	10600 5400 10600 5500
Wire Wire Line
	10300 5400 10200 5400
Wire Wire Line
	10200 5400 10200 5500
$Comp
L vending-machine-pi-hat-rescue:Conn_01x02-conn J4
U 1 1 5D641951
P 7300 1200
F 0 "J4" H 7300 1000 50  0000 C CNN
F 1 "Screw Terminals" V 7450 1150 50  0000 C CNN
F 2 "vending-machine-pi-hat:OSTTE_Screw_Terminal_2pol" H 7300 1200 50  0001 C CNN
F 3 "~" H 7300 1200 50  0001 C CNN
	1    7300 1200
	1    0    0    1   
$EndComp
$Comp
L device:D_Schottky D2
U 1 1 5D647591
P 1450 5100
F 0 "D2" H 1450 5200 50  0000 C CNN
F 1 "SBRT3U60SAF" H 1250 4950 50  0000 C CNN
F 2 "digikey-footprints:DO-214AC" H 1450 5100 50  0001 C CNN
F 3 "~" H 1450 5100 50  0001 C CNN
	1    1450 5100
	1    0    0    -1  
$EndComp
Wire Wire Line
	1300 5100 1000 5100
$Comp
L device:D_Schottky D4
U 1 1 5D655CE1
P 10300 4950
F 0 "D4" H 10300 4850 50  0000 C CNN
F 1 "SBRT3U60SAF" H 10300 5050 50  0000 C CNN
F 2 "digikey-footprints:DO-214AC" H 10300 4950 50  0001 C CNN
F 3 "~" H 10300 4950 50  0001 C CNN
	1    10300 4950
	-1   0    0    1   
$EndComp
Wire Wire Line
	10450 4950 10650 4950
$Comp
L device:D_Schottky D3
U 1 1 5D66FE45
P 6850 1100
F 0 "D3" H 6850 1316 50  0000 C CNN
F 1 "SBRT3U60SAF" H 6850 1225 50  0000 C CNN
F 2 "digikey-footprints:DO-214AC" H 6850 1100 50  0001 C CNN
F 3 "~" H 6850 1100 50  0001 C CNN
	1    6850 1100
	1    0    0    -1  
$EndComp
Wire Wire Line
	7100 1100 7000 1100
Wire Wire Line
	6700 1100 6450 1100
Text Label 6450 1100 0    50   ~ 0
VIN
$Comp
L power:GND #PWR0105
U 1 1 5D681CB6
P 7050 1250
F 0 "#PWR0105" H 7050 1000 50  0001 C CNN
F 1 "GND" H 7055 1077 50  0000 C CNN
F 2 "" H 7050 1250 50  0001 C CNN
F 3 "" H 7050 1250 50  0001 C CNN
	1    7050 1250
	1    0    0    -1  
$EndComp
Wire Wire Line
	7100 1200 7050 1200
Wire Wire Line
	7050 1200 7050 1250
$Comp
L device:Jumper_NC_Small JP1
U 1 1 5D633FCF
P 9900 4950
F 0 "JP1" H 9900 5050 50  0000 C CNN
F 1 "Jumper_NC_Small" H 10200 4700 50  0001 C CNN
F 2 "Connector_PinHeader_2.54mm:PinHeader_1x02_P2.54mm_Vertical" H 9900 4950 50  0001 C CNN
F 3 "~" H 9900 4950 50  0001 C CNN
	1    9900 4950
	1    0    0    -1  
$EndComp
Wire Wire Line
	10000 4950 10150 4950
Wire Notes Line
	5850 650  7850 650 
Wire Notes Line
	7850 650  7850 1800
Wire Notes Line
	7850 1800 5850 1800
Wire Notes Line
	5850 1800 5850 650 
Text Notes 5950 1700 0    50   ~ 10
Power Supply input (Screw terminal)
$Comp
L symbols:TPC817 U5
U 1 1 5D7023C1
P 3950 3750
F 0 "U5" H 3950 4075 50  0000 C CNN
F 1 "TPC817S1C RAG" H 3950 3984 50  0000 C CNN
F 2 "vending-machine-pi-hat:SOP-4_6.5x4.6mm_Pitch2.54mm" H 3950 4150 50  0001 C CNN
F 3 "" H 3950 4150 50  0001 C CNN
	1    3950 3750
	1    0    0    -1  
$EndComp
Wire Wire Line
	4250 3850 4350 3850
$Comp
L power:GND #PWR0106
U 1 1 5D7023C9
P 4350 4350
F 0 "#PWR0106" H 4350 4100 50  0001 C CNN
F 1 "GND" H 4355 4177 50  0000 C CNN
F 2 "" H 4350 4350 50  0001 C CNN
F 3 "" H 4350 4350 50  0001 C CNN
	1    4350 4350
	1    0    0    -1  
$EndComp
$Comp
L device:R R4
U 1 1 5D7023CF
P 3450 3650
F 0 "R4" V 3243 3650 50  0000 C CNN
F 1 "249R" V 3334 3650 50  0000 C CNN
F 2 "Resistors_SMD:R_0603_1608Metric" V 3380 3650 50  0001 C CNN
F 3 "~" H 3450 3650 50  0001 C CNN
	1    3450 3650
	0    1    1    0   
$EndComp
Wire Wire Line
	3650 3650 3600 3650
Wire Wire Line
	3650 3850 3250 3850
Wire Wire Line
	3100 3650 3300 3650
Text Label 5350 3850 2    50   ~ 0
MDB_MASTER_RX
$Comp
L device:R R5
U 1 1 5D7023E0
P 4350 4150
F 0 "R5" H 4250 4150 50  0000 C CNN
F 1 "10k" V 4450 4150 50  0000 C CNN
F 2 "Resistors_SMD:R_0603_1608Metric" V 4280 4150 50  0001 C CNN
F 3 "~" H 4350 4150 50  0001 C CNN
	1    4350 4150
	-1   0    0    1   
$EndComp
Wire Wire Line
	3250 5050 3250 3850
Connection ~ 3250 5050
Wire Wire Line
	3100 3650 3100 4850
Connection ~ 3100 4850
Wire Wire Line
	4350 4300 4350 4350
Wire Wire Line
	4350 3850 4350 4000
Wire Wire Line
	4350 3850 5350 3850
Connection ~ 4350 3850
Wire Wire Line
	4350 3600 4350 3650
Wire Wire Line
	4350 3650 4250 3650
Text Label 8500 2450 0    50   ~ 0
MDB_MASTER_RX
$Comp
L device:Jumper_NC_Small JP2
U 1 1 5D75C3CF
P 10150 4000
F 0 "JP2" H 10150 4100 50  0000 C CNN
F 1 "Jumper_NC_Small" H 10450 3750 50  0001 C CNN
F 2 "Connector_PinHeader_2.54mm:PinHeader_1x02_P2.54mm_Vertical" H 10150 4000 50  0001 C CNN
F 3 "~" H 10150 4000 50  0001 C CNN
	1    10150 4000
	1    0    0    -1  
$EndComp
NoConn ~ 10050 4000
NoConn ~ 10250 4000
$Comp
L power:+3.3V #PWR0107
U 1 1 5E1A0A21
P 9050 1000
F 0 "#PWR0107" H 9050 850 50  0001 C CNN
F 1 "+3.3V" H 9065 1173 50  0000 C CNN
F 2 "" H 9050 1000 50  0001 C CNN
F 3 "" H 9050 1000 50  0001 C CNN
	1    9050 1000
	1    0    0    -1  
$EndComp
Wire Wire Line
	9050 1000 9050 1050
Wire Wire Line
	9050 1050 9250 1050
$Comp
L power:+3.3V #PWR0108
U 1 1 5E1AC4CC
P 4350 3600
F 0 "#PWR0108" H 4350 3450 50  0001 C CNN
F 1 "+3.3V" H 4365 3773 50  0000 C CNN
F 2 "" H 4350 3600 50  0001 C CNN
F 3 "" H 4350 3600 50  0001 C CNN
	1    4350 3600
	1    0    0    -1  
$EndComp
$Comp
L power:+3.3V #PWR0109
U 1 1 5E1ADB90
P 4350 4800
F 0 "#PWR0109" H 4350 4650 50  0001 C CNN
F 1 "+3.3V" H 4365 4973 50  0000 C CNN
F 2 "" H 4350 4800 50  0001 C CNN
F 3 "" H 4350 4800 50  0001 C CNN
	1    4350 4800
	1    0    0    -1  
$EndComp
$Comp
L power:+3.3V #PWR0110
U 1 1 5E1B0B81
P 4400 5300
F 0 "#PWR0110" H 4400 5150 50  0001 C CNN
F 1 "+3.3V" H 4415 5473 50  0000 C CNN
F 2 "" H 4400 5300 50  0001 C CNN
F 3 "" H 4400 5300 50  0001 C CNN
	1    4400 5300
	1    0    0    -1  
$EndComp
$Comp
L device:Q_NMOS_GSD Q1
U 1 1 5E213358
P 6600 2850
F 0 "Q1" V 6850 2950 50  0000 C CNN
F 1 "BS 138" V 6850 2700 50  0000 C CNN
F 2 "Package_TO_SOT_SMD:SOT-23" H 6800 2950 50  0001 C CNN
F 3 "~" H 6600 2850 50  0001 C CNN
	1    6600 2850
	0    1    1    0   
$EndComp
Wire Wire Line
	6400 2950 6000 2950
Text Label 6000 2950 0    50   ~ 0
RS232_RX
Wire Wire Line
	6800 2950 7000 2950
Text Label 7650 2950 2    50   ~ 0
RS232_RX_3V3
Text Notes 5950 3300 0    50   ~ 10
Level Shifter RS-232 (5V -> 3.3V)
$Comp
L device:R R6
U 1 1 5E245136
P 6600 2450
F 0 "R6" H 6670 2496 50  0000 L CNN
F 1 "2k2" H 6670 2405 50  0000 L CNN
F 2 "Resistors_SMD:R_0603_1608Metric" V 6530 2450 50  0001 C CNN
F 3 "~" H 6600 2450 50  0001 C CNN
	1    6600 2450
	1    0    0    -1  
$EndComp
$Comp
L device:R R7
U 1 1 5E245BE1
P 7000 2450
F 0 "R7" H 7070 2496 50  0000 L CNN
F 1 "6k8" H 7070 2405 50  0000 L CNN
F 2 "Resistors_SMD:R_0603_1608Metric" V 6930 2450 50  0001 C CNN
F 3 "~" H 7000 2450 50  0001 C CNN
	1    7000 2450
	1    0    0    -1  
$EndComp
Wire Wire Line
	7000 2600 7000 2950
Connection ~ 7000 2950
Wire Wire Line
	7000 2950 7650 2950
Wire Wire Line
	6600 2650 6600 2600
Wire Wire Line
	6600 2250 6600 2300
$Comp
L power:+3.3V #PWR0111
U 1 1 5E25E31C
P 7000 2250
F 0 "#PWR0111" H 7000 2100 50  0001 C CNN
F 1 "+3.3V" H 7015 2423 50  0000 C CNN
F 2 "" H 7000 2250 50  0001 C CNN
F 3 "" H 7000 2250 50  0001 C CNN
	1    7000 2250
	1    0    0    -1  
$EndComp
Wire Wire Line
	7000 2300 7000 2250
$Comp
L power:+5V #PWR0112
U 1 1 5E2676A6
P 6600 2250
F 0 "#PWR0112" H 6600 2100 50  0001 C CNN
F 1 "+5V" H 6615 2423 50  0000 C CNN
F 2 "" H 6600 2250 50  0001 C CNN
F 3 "" H 6600 2250 50  0001 C CNN
	1    6600 2250
	1    0    0    -1  
$EndComp
Wire Notes Line
	5850 1950 7850 1950
Wire Notes Line
	7850 1950 7850 3400
Wire Notes Line
	7850 3400 5850 3400
Wire Notes Line
	5850 3400 5850 1950
Text Label 10550 1350 2    50   ~ 0
MDB_SLAVE_TX
Wire Wire Line
	10550 1350 9750 1350
Wire Wire Line
	9750 1450 10550 1450
Wire Wire Line
	9750 2550 10550 2550
Wire Wire Line
	9250 2650 8500 2650
Wire Wire Line
	9250 2450 8500 2450
$Comp
L symbols:A-DS_09_A_KG-T2S_Male_Connector J2
U 1 1 5E32D6D9
P 9400 4850
F 0 "J2" H 9400 5377 60  0000 C CNN
F 1 "A-DS_09_A_KG-T2S" H 9150 5250 60  0000 C CNN
F 2 "vending-machine-pi-hat:DSUB-9_Receptical_A-DS_09_A_KG-T2S" H 9600 5050 60  0001 L CNN
F 3 "http://www.assmann-wsw.com/fileadmin/datasheets/ASS_4888_CO.pdf" H 9600 5150 60  0001 L CNN
F 4 "AE10968-ND" H 9600 5250 60  0001 L CNN "Digi-Key_PN"
F 5 "A-DS 09 A/KG-T2S" H 9600 5350 60  0001 L CNN "MPN"
F 6 "Connectors, Interconnects" H 9600 5450 60  0001 L CNN "Category"
F 7 "D-Sub Connectors" H 9600 5550 60  0001 L CNN "Family"
F 8 "http://www.assmann-wsw.com/fileadmin/datasheets/ASS_4888_CO.pdf" H 9600 5650 60  0001 L CNN "DK_Datasheet_Link"
F 9 "https://www.digikey.com/product-detail/en/assmann-wsw-components/A-DS-09-A-KG-T2S/AE10968-ND/1241804" H 9600 5750 60  0001 L CNN "DK_Detail_Page"
F 10 "CONN D-SUB PLUG 9POS R/A SOLDER" H 9600 5850 60  0001 L CNN "Description"
F 11 "Assmann WSW Components" H 9600 5950 60  0001 L CNN "Manufacturer"
F 12 "Active" H 9600 6050 60  0001 L CNN "Status"
	1    9400 4850
	-1   0    0    -1  
$EndComp
NoConn ~ 9100 4950
Wire Wire Line
	9100 4750 8300 4750
$Comp
L power:GNDS #PWR0113
U 1 1 5E37AB72
P 9400 5400
F 0 "#PWR0113" H 9400 5150 50  0001 C CNN
F 1 "GNDS" H 9405 5227 50  0000 C CNN
F 2 "" H 9400 5400 50  0001 C CNN
F 3 "" H 9400 5400 50  0001 C CNN
	1    9400 5400
	1    0    0    -1  
$EndComp
Wire Wire Line
	9400 5350 9400 5400
$EndSCHEMATC
