(module Fuse_1206_concave (layer F.Cu) (tedit 5D61634E)
  (descr "0679H Series, 2410 Size")
  (tags Fuse)
  (attr smd)
  (fp_text reference REF** (at 0 -2.6) (layer F.SilkS)
    (effects (font (size 1 1) (thickness 0.15)))
  )
  (fp_text value Fuse_1206_concave (at 0 2.6) (layer F.Fab)
    (effects (font (size 1 1) (thickness 0.15)))
  )
  (fp_line (start -1.75 -0.8) (end 1.75 -0.8) (layer F.Fab) (width 0.1))
  (fp_line (start 1.75 -0.8) (end 1.75 0.8) (layer F.Fab) (width 0.1))
  (fp_line (start 1.75 0.8) (end -1.75 0.8) (layer F.Fab) (width 0.1))
  (fp_line (start -1.75 0.8) (end -1.75 -0.8) (layer F.Fab) (width 0.1))
  (fp_line (start -0.85 -0.9) (end 0.85 -0.9) (layer F.SilkS) (width 0.12))
  (fp_line (start -0.85 0.9) (end 0.85 0.9) (layer F.SilkS) (width 0.12))
  (fp_line (start -2.1 -1.05) (end 2.1 -1.05) (layer F.CrtYd) (width 0.05))
  (fp_line (start 2.1 -1.05) (end 2.1 1.05) (layer F.CrtYd) (width 0.05))
  (fp_line (start 2.1 1.05) (end -2.1 1.05) (layer F.CrtYd) (width 0.05))
  (fp_line (start -2.1 1.05) (end -2.1 -1.05) (layer F.CrtYd) (width 0.05))
  (pad 1 smd rect (at -1.5 0) (size 1 1.6) (layers F.Cu F.Paste F.Mask))
  (pad 2 smd rect (at 1.5 0) (size 1 1.6) (layers F.Cu F.Paste F.Mask))
)
