(module SOP-4_6.5x4.6mm_Pitch2.54mm (layer F.Cu) (tedit 5D5BD1C0)
  (descr "4-Lead Plastic Small Outline (SO) (http://www.everlight.com/file/ProductFile/201407061745083848.pdf)")
  (tags "SO SOIC 2.54")
  (attr smd)
  (fp_text reference REF** (at 0 -3.3) (layer F.SilkS)
    (effects (font (size 1 1) (thickness 0.15)))
  )
  (fp_text value SOP-4_6.5x4.6mm_Pitch2.54mm (at 0 3.4) (layer F.Fab)
    (effects (font (size 1 1) (thickness 0.15)))
  )
  (fp_line (start 6 2.05) (end -6 2.05) (layer F.CrtYd) (width 0.05))
  (fp_line (start 6 2.05) (end 6 -2.05) (layer F.CrtYd) (width 0.05))
  (fp_line (start -6 -2.05) (end -6 2.05) (layer F.CrtYd) (width 0.05))
  (fp_line (start -6 -2.05) (end 6 -2.05) (layer F.CrtYd) (width 0.05))
  (fp_line (start -2.45 -2.3) (end 3.25 -2.3) (layer F.Fab) (width 0.12))
  (fp_line (start -3.25 -1.5) (end -2.45 -2.3) (layer F.Fab) (width 0.12))
  (fp_line (start -3.25 2.3) (end -3.25 -1.5) (layer F.Fab) (width 0.12))
  (fp_line (start 3.25 2.3) (end -3.25 2.3) (layer F.Fab) (width 0.12))
  (fp_line (start 3.25 -2.3) (end 3.25 2.3) (layer F.Fab) (width 0.12))
  (fp_line (start 3.45 -2.5) (end 3.45 -2.2) (layer F.SilkS) (width 0.12))
  (fp_line (start -3.45 -2.5) (end 3.45 -2.5) (layer F.SilkS) (width 0.12))
  (fp_line (start -3.45 -2.2) (end -3.45 -2.5) (layer F.SilkS) (width 0.12))
  (fp_line (start -3.45 2.5) (end -3.45 2.2) (layer F.SilkS) (width 0.12))
  (fp_line (start 3.45 2.5) (end -3.45 2.5) (layer F.SilkS) (width 0.12))
  (fp_line (start 3.45 2.2) (end 3.45 2.5) (layer F.SilkS) (width 0.12))
  (fp_text user %R (at 0 -0.065) (layer F.Fab)
    (effects (font (size 1 1) (thickness 0.15)))
  )
  (fp_line (start -3.45 -2.2) (end -5.15 -2.2) (layer F.SilkS) (width 0.12))
  (pad 4 smd rect (at 4.55 -1.27) (size 2.54 1.5) (layers F.Cu F.Paste F.Mask))
  (pad 3 smd rect (at 4.55 1.25) (size 2.54 1.5) (layers F.Cu F.Paste F.Mask))
  (pad 2 smd rect (at -4.55 1.25) (size 2.54 1.5) (layers F.Cu F.Paste F.Mask))
  (pad 1 smd rect (at -4.55 -1.27) (size 2.54 1.5) (layers F.Cu F.Paste F.Mask))
  (model ${KISYS3DMOD}/Housings_SOIC.3dshapes/SO-4_7.6x3.6mm_Pitch2.54mm.wrl
    (offset (xyz 0 0.01500000025472259 0))
    (scale (xyz 1 1 1))
    (rotate (xyz 0 0 0))
  )
)
